{
	"tags":
	{
		"allowUnknownTags" : true
	},
	"plugins":[
		 "plugins/markdown",
		 "./node_modules/tsdoc/template/plugins/TSDoc.js"
	],
	"templates" : {
		"cleverLinks"           : false,
		"monospaceLinks"        : false,
		"navType"               : "vertical",
		"linenums"              : true,
		"collapseSymbols"       : true,
		"outputSourceFiles"     : true,
		"outputSourcePath"      : true,
		"theme"					: "cosmo"
	},
	"source":
	{
		"includePattern": "(\\.d)?\\.ts$"
	},
	"markdown"  : {
		"parser"   : "gfm",
		"hardwrap" : true
	},
	"tsdoc":{
		"source"		    : "./app/cytoscape/scripts/services",
		"destination"	    : "./docs",
		"tutorials"		    : "",
		"systemName"	    : "ginflow-webapp",
		"footer"		    : "",
		"copyright"		    : "",
		"outputSourceFiles" : true,
		"commentsOnly"      : true
	}
}
